<?xml version="1.0" encoding="UTF-8" standalone="no"?>
<!-- Created with Inkscape (http://www.inkscape.org/) -->

<svg
   xmlns:dc="http://purl.org/dc/elements/1.1/"
   xmlns:cc="http://creativecommons.org/ns#"
   xmlns:rdf="http://www.w3.org/1999/02/22-rdf-syntax-ns#"
   xmlns:svg="http://www.w3.org/2000/svg"
   xmlns="http://www.w3.org/2000/svg"
   xmlns:sodipodi="http://sodipodi.sourceforge.net/DTD/sodipodi-0.dtd"
   xmlns:inkscape="http://www.inkscape.org/namespaces/inkscape"
   id="svg2"
   version="1.1"
   inkscape:version="0.92.4 (5da689c313, 2019-01-14)"
   width="512"
   height="512"
   sodipodi:docname="update-manager1.svg">
  <metadata
     id="metadata8">
    <rdf:RDF>
      <cc:Work
         rdf:about="">
        <dc:format>image/svg+xml</dc:format>
        <dc:type
           rdf:resource="http://purl.org/dc/dcmitype/StillImage" />
        <dc:title></dc:title>
      </cc:Work>
    </rdf:RDF>
  </metadata>
  <defs
     id="defs6">
    <linearGradient
       gradientTransform="matrix(2.4500372,0,0,2.4500372,-89.140091,68.897079)"
       gradientUnits="userSpaceOnUse"
       y2="-27.705999"
       x2="60.752998"
       y1="22.938999"
       x1="61.57"
       id="0">
      <stop
         id="stop7"
         stop-color="#197cf1" />
      <stop
         id="stop9"
         stop-color="#21c9fb"
         offset="1" />
    </linearGradient>
    <linearGradient
       id="0-5"
       x1="4.1036282"
       y1="5.7643719"
       x2="-11.233"
       y2="-24.076544"
       gradientUnits="userSpaceOnUse"
       gradientTransform="matrix(16.164994,0,0,15.622133,424.05641,398.32734)">
      <stop
         id="stop7-3"
         stop-color="#197cf1"
         style="stop-color:#0a4fa0;stop-opacity:1" />
      <stop
         id="stop9-6"
         offset="1"
         stop-color="#21c9fb" />
    </linearGradient>
    <linearGradient
       id="1"
       y1="35.139999"
       x2="0"
       y2="4.4450002"
       gradientUnits="userSpaceOnUse"
       gradientTransform="matrix(3.0135593,0,0,3.0133656,159.51634,4.8305753)">
      <stop
         id="stop12"
         stop-color="#d8d8d8" />
      <stop
         id="stop14"
         offset="1"
         stop-color="#fff" />
    </linearGradient>
    <linearGradient
       id="1-1"
       y1="35.139999"
       x2="0"
       y2="4.4450002"
       gradientUnits="userSpaceOnUse"
       gradientTransform="matrix(11.55549,0,0,11.554747,100.60774,24.255991)">
      <stop
         id="stop12-2"
         stop-color="#d8d8d8" />
      <stop
         id="stop14-7"
         offset="1"
         stop-color="#fff" />
    </linearGradient>
    <linearGradient
       gradientTransform="matrix(4.2993071,0,0,4.1549256,108.60645,101.41254)"
       gradientUnits="userSpaceOnUse"
       y2="-22.851"
       x2="-11.233"
       y1="4.6750002"
       x1="-10.767"
       id="0-5-7">
      <stop
         stop-color="#197cf1"
         id="stop7-3-5" />
      <stop
         stop-color="#21c9fb"
         offset="1"
         id="stop9-6-1" />
    </linearGradient>
    <linearGradient
       gradientTransform="matrix(3.0135593,0,0,3.0133656,159.51634,4.8305753)"
       gradientUnits="userSpaceOnUse"
       y2="4.4450002"
       x2="0"
       y1="35.139999"
       id="1-0">
      <stop
         stop-color="#d8d8d8"
         id="stop12-0" />
      <stop
         stop-color="#fff"
         offset="1"
         id="stop14-72" />
    </linearGradient>
  </defs>
  <sodipodi:namedview
     pagecolor="#ffffff"
     bordercolor="#666666"
     borderopacity="1"
     objecttolerance="10"
     gridtolerance="10"
     guidetolerance="10"
     inkscape:pageopacity="0"
     inkscape:pageshadow="2"
     inkscape:window-width="1280"
     inkscape:window-height="915"
     id="namedview4"
     showgrid="false"
     inkscape:zoom="0.4609375"
     inkscape:cx="211.93679"
     inkscape:cy="295.55878"
     inkscape:window-x="0"
     inkscape:window-y="31"
     inkscape:window-maximized="1"
     inkscape:current-layer="svg2" />
  <rect
     height="437.42374"
     width="437.42374"
     rx="49.783356"
     id="rect16"
     x="37.118645"
     y="39.457626"
     style="fill:url(#0-5);stroke-width:1" />
  <g
     transform="matrix(11.033898,0,0,13.98761,-9.253598,-87.43825)"
     id="layer2">
    <path
       inkscape:connector-curvature="0"
       style="color:#000000;font-style:normal;font-variant:normal;font-weight:normal;font-stretch:normal;font-size:medium;line-height:normal;font-family:Sans;-inkscape-font-specification:Sans;text-indent:0;text-align:start;text-decoration:none;text-decoration-line:none;letter-spacing:normal;word-spacing:normal;text-transform:none;writing-mode:lr-tb;direction:ltr;baseline-shift:baseline;text-anchor:start;display:inline;overflow:visible;visibility:visible;opacity:0.3;fill:#000000;fill-opacity:1;stroke:none;stroke-width:1.99999976;marker:none;enable-background:accumulate"
       d="m 21,14.00025 v 2 10 h -5 c 2.9335,4.16346 8,10.21875 8,10.21875 l 8,-10.21875 h -5 v -10 -2 h -2 -2 z"
       id="path3971" />
    <path
       inkscape:connector-curvature="0"
       id="path1299"
       d="m 21,13 v 2 10 h -5 c 2.9335,4.16346 8,10.21875 8,10.21875 L 32,25 H 27 V 15 13 h -2 -2 z"
       style="color:#000000;font-style:normal;font-variant:normal;font-weight:normal;font-stretch:normal;font-size:medium;line-height:normal;font-family:Sans;-inkscape-font-specification:Sans;text-indent:0;text-align:start;text-decoration:none;text-decoration-line:none;letter-spacing:normal;word-spacing:normal;text-transform:none;writing-mode:lr-tb;direction:ltr;baseline-shift:baseline;text-anchor:start;display:inline;overflow:visible;visibility:visible;fill:#ffffff;fill-opacity:1;stroke:none;stroke-width:1.99999976;marker:none;enable-background:accumulate" />
  </g>
</svg>
